<define-tag pagetitle>DLA-1231-1 graphicsmagick</define-tag>
<define-tag report_date>2018-1-8</define-tag>
<define-tag secrefs>CVE-2017-17498 CVE-2017-17500 CVE-2017-17501 CVE-2017-17502 CVE-2017-17503 CVE-2017-17782 CVE-2017-17912 CVE-2017-17915 Bug#884905</define-tag>
<define-tag packages>graphicsmagick</define-tag>
<define-tag isvulnerable>yes</define-tag>
<define-tag fixed>yes</define-tag>
<define-tag fixed-section>no</define-tag>

#use wml::debian::security

