<define-tag pagetitle>DSA-4460-1 mediawiki</define-tag>
<define-tag report_date>2019-6-12</define-tag>
<define-tag secrefs>CVE-2019-11358 CVE-2019-12466 CVE-2019-12467 CVE-2019-12468 CVE-2019-12469 CVE-2019-12470 CVE-2019-12471 CVE-2019-12472 CVE-2019-12473 CVE-2019-12474</define-tag>
<define-tag packages>mediawiki</define-tag>
<define-tag isvulnerable>yes</define-tag>
<define-tag fixed>yes</define-tag>
<define-tag fixed-section>no</define-tag>

#use wml::debian::security



</dl>
