<define-tag pagetitle>DLA-1753-3 proftpd-dfsg</define-tag>
<define-tag report_date>2019-5-21</define-tag>
<define-tag secrefs>Bug#929020</define-tag>
<define-tag packages>proftpd-dfsg</define-tag>
<define-tag isvulnerable>yes</define-tag>
<define-tag fixed>yes</define-tag>
<define-tag fixed-section>no</define-tag>

#use wml::debian::security

